<?xml version="1.0" encoding="UTF-8" standalone="no"?>
<!-- Created with Inkscape (http://www.inkscape.org/) -->
<svg xmlns:svg="http://www.w3.org/2000/svg" xmlns="http://www.w3.org/2000/svg" version="1.0" width="6" height="13" id="svg1361"><link xmlns="" type="text/css" rel="stylesheet" id="dark-mode-custom-link"/><link xmlns="" type="text/css" rel="stylesheet" id="dark-mode-general-link"/><style xmlns="" lang="en" type="text/css" id="dark-mode-custom-style"/><style xmlns="" lang="en" type="text/css" id="dark-mode-native-style"/>
  <defs id="defs1363"/>
  <g transform="scale(3 3)">
  <g transform="translate(0,-1.53013)" id="layer1">
    <g transform="translate(-94.947,-433.75)" style="fill:#000000" id="g2111">
      <path d="M 98.166,443.657 C 98.166,444.232 97.950425,444.78273 97.359,445.52188 C 96.732435,446.30494 96.205,446.75313 95.51,447.28013 L 95.51,443.848 C 95.668,443.449 95.901,443.126 96.21,442.878 C 96.518,442.631 96.83,442.507 97.146,442.507 C 97.668,442.507 97.999,442.803 98.142,443.393 C 98.158,443.441 98.166,443.529 98.166,443.657 z M 98.091,441.257 C 97.66,441.257 97.222,441.376 96.776,441.615 C 96.33,441.853 95.908,442.172 95.51,442.569 L 95.51,435.29733 L 94.947,435.29733 L 94.947,447.75213 C 94.947,448.10413 95.043,448.28013 95.235,448.28013 C 95.346,448.28013 95.483913,448.18713 95.69,448.06413 C 96.27334,447.71598 96.636935,447.48332 97.032,447.23788 C 97.482617,446.95792 97.99,446.631 98.661,445.991 C 99.124,445.526 99.459,445.057 99.667,444.585 C 99.874,444.112 99.978,443.644 99.978,443.179 C 99.978,442.491 99.795,442.002 99.429,441.713 C 99.015,441.409 98.568,441.257 98.091,441.257 z " id="path2117"/>
    </g>
  </g>
</g>
</svg>