<svg xmlns="http://www.w3.org/2000/svg" height="150.00px" viewBox="0 0 1250.00 150.00" width="1250.00px" fill="#000000">
  <path fill="white" d="M 0,0 0,150.00 1250.00,150.00 1250.00,0 0,0 z"/>
  <path fill="none" style="stroke: black; stroke-width:1;"
        d="M 100.00,50.00 1150.00,50.00 z"/>
  <path fill="none" style="stroke: black; stroke-width:1;"
        d="M 100.00,62.50 1150.00,62.50 z"/>
  <path fill="none" style="stroke: black; stroke-width:1;"
        d="M 100.00,75.00 1150.00,75.00 z"/>
  <path fill="none" style="stroke: black; stroke-width:1;"
        d="M 100.00,87.50 1150.00,87.50 z"/>
  <path fill="none" style="stroke: black; stroke-width:1;"
        d="M 100.00,100.00 1150.00,100.00 z"/>
  <path fill="none" style="stroke: black; stroke-width:3;"
        d="M 150.00,48.00 150.00,102.00 z"/>
  <path fill="none" style="stroke: black; stroke-width:3;"
        d="M 350.00,48.00 350.00,102.00 z"/>
  <path fill="none" style="stroke: black; stroke-width:3;"
        d="M 550.00,48.00 550.00,102.00 z"/>
  <path fill="none" style="stroke: black; stroke-width:3;"
        d="M 750.00,48.00 750.00,102.00 z"/>
  <path fill="none" style="stroke: black; stroke-width:3;"
        d="M 950.00,48.00 950.00,102.00 z"/>
  <path fill="none" style="stroke: black; stroke-width:3;"
        d="M 1150.00,48.00 1150.00,102.00 z"/>
  <path fill="none" style="stroke: black; stroke-width:2;"
        d="M 124.88,66.76 141.12,63.92 z"/>
  <path fill="none" style="stroke: black; stroke-width:2;"
        d="M 124.88,73.58 141.12,70.74 z"/>
  <path fill="none" style="stroke: black; stroke-width:2;"
        d="M 129.59,60.62 129.59,76.88 z"/>
  <path fill="none" style="stroke: black; stroke-width:2;"
        d="M 136.41,60.62 136.41,76.88 z"/>
  <path fill="none" style="stroke: black; stroke-width:2;"
        d="M 108.38,48.01 124.62,45.17 z"/>
  <path fill="none" style="stroke: black; stroke-width:2;"
        d="M 108.38,54.83 124.62,51.99 z"/>
  <path fill="none" style="stroke: black; stroke-width:2;"
        d="M 113.09,41.88 113.09,58.12 z"/>
  <path fill="none" style="stroke: black; stroke-width:2;"
        d="M 119.91,41.88 119.91,58.12 z"/>
  <path fill="none" style="stroke: black; stroke-width:2;"
        d="M 124.88,41.76 141.12,38.92 z"/>
  <path fill="none" style="stroke: black; stroke-width:2;"
        d="M 124.88,48.58 141.12,45.74 z"/>
  <path fill="none" style="stroke: black; stroke-width:2;"
        d="M 129.59,35.62 129.59,51.88 z"/>
  <path fill="none" style="stroke: black; stroke-width:2;"
        d="M 136.41,35.62 136.41,51.88 z"/>
  <circle fill="black" style="stroke-width:0;" cx="175.00" cy="43.75" r="7.00"/>
  <path fill="none" style="stroke: black; stroke-width:2;"
        d="M 181.00,43.75 181.00,12.50 z"/>
  <circle fill="black" style="stroke-width:0;" cx="225.00" cy="37.50" r="7.00"/>
  <path fill="none" style="stroke: black; stroke-width:2;"
        d="M 231.00,37.50 231.00,6.25 z"/>
  <path fill="none" style="stroke: black; stroke-width:1;"
        d="M 211.00,37.50 239.00,37.50 z"/>
  <circle fill="black" style="stroke-width:0;" cx="275.00" cy="25.00" r="7.00"/>
  <path fill="none" style="stroke: black; stroke-width:2;"
        d="M 281.00,25.00 281.00,-6.25 z"/>
  <path fill="none" style="stroke: black; stroke-width:1;"
        d="M 261.00,25.00 289.00,25.00 z"/>
  <path fill="none" style="stroke: black; stroke-width:1;"
        d="M 261.00,37.50 289.00,37.50 z"/>
  <circle fill="black" style="stroke-width:0;" cx="275.00" cy="50.00" r="7.00"/>
  <path fill="none" style="stroke: black; stroke-width:2;"
        d="M 281.00,50.00 281.00,18.75 z"/>
  <circle fill="black" style="stroke-width:0;" cx="325.00" cy="31.25" r="7.00"/>
  <path fill="none" style="stroke: black; stroke-width:2;"
        d="M 331.00,31.25 331.00,0.00 z"/>
  <path fill="none" style="stroke: black; stroke-width:1;"
        d="M 311.00,37.50 339.00,37.50 z"/>
  <circle fill="black" style="stroke-width:0;" cx="375.00" cy="50.00" r="7.00"/>
  <path fill="none" style="stroke: black; stroke-width:2;"
        d="M 381.00,50.00 381.00,18.75 z"/>
  <circle fill="black" style="stroke-width:0;" cx="425.00" cy="62.50" r="7.00"/>
  <path fill="none" style="stroke: black; stroke-width:2;"
        d="M 431.00,62.50 431.00,31.25 z"/>
  <circle fill="black" style="stroke-width:0;" cx="475.00" cy="50.00" r="7.00"/>
  <path fill="none" style="stroke: black; stroke-width:2;"
        d="M 481.00,50.00 481.00,18.75 z"/>
  <circle fill="black" style="stroke-width:0;" cx="525.00" cy="50.00" r="7.00"/>
  <path fill="none" style="stroke: black; stroke-width:2;"
        d="M 531.00,50.00 531.00,18.75 z"/>
  <circle fill="black" style="stroke-width:0;" cx="575.00" cy="43.75" r="7.00"/>
  <path fill="none" style="stroke: black; stroke-width:2;"
        d="M 581.00,43.75 581.00,12.50 z"/>
  <circle fill="black" style="stroke-width:0;" cx="575.00" cy="62.50" r="7.00"/>
  <path fill="none" style="stroke: black; stroke-width:2;"
        d="M 581.00,62.50 581.00,31.25 z"/>
  <circle fill="black" style="stroke-width:0;" cx="625.00" cy="50.00" r="7.00"/>
  <path fill="none" style="stroke: black; stroke-width:2;"
        d="M 631.00,50.00 631.00,18.75 z"/>
  <circle fill="black" style="stroke-width:0;" cx="675.00" cy="56.25" r="7.00"/>
  <path fill="none" style="stroke: black; stroke-width:2;"
        d="M 681.00,56.25 681.00,25.00 z"/>
  <circle fill="black" style="stroke-width:0;" cx="675.00" cy="100.00" r="7.00"/>
  <path fill="none" style="stroke: black; stroke-width:2;"
        d="M 681.00,100.00 681.00,68.75 z"/>
  <circle fill="black" style="stroke-width:0;" cx="725.00" cy="81.25" r="7.00"/>
  <path fill="none" style="stroke: black; stroke-width:2;"
        d="M 731.00,81.25 731.00,50.00 z"/>
  <circle fill="black" style="stroke-width:0;" cx="725.00" cy="37.50" r="7.00"/>
  <path fill="none" style="stroke: black; stroke-width:2;"
        d="M 731.00,37.50 731.00,6.25 z"/>
  <path fill="none" style="stroke: black; stroke-width:1;"
        d="M 711.00,37.50 739.00,37.50 z"/>
  <circle fill="black" style="stroke-width:0;" cx="775.00" cy="93.75" r="7.00"/>
  <path fill="none" style="stroke: black; stroke-width:2;"
        d="M 781.00,93.75 781.00,62.50 z"/>
  <circle fill="black" style="stroke-width:0;" cx="825.00" cy="112.50" r="7.00"/>
  <path fill="none" style="stroke: black; stroke-width:2;"
        d="M 831.00,112.50 831.00,81.25 z"/>
  <path fill="none" style="stroke: black; stroke-width:1;"
        d="M 811.00,112.50 839.00,112.50 z"/>
  <circle fill="black" style="stroke-width:0;" cx="875.00" cy="68.75" r="7.00"/>
  <path fill="none" style="stroke: black; stroke-width:2;"
        d="M 881.00,68.75 881.00,37.50 z"/>
  <circle fill="black" style="stroke-width:0;" cx="875.00" cy="93.75" r="7.00"/>
  <path fill="none" style="stroke: black; stroke-width:2;"
        d="M 881.00,93.75 881.00,62.50 z"/>
  <circle fill="black" style="stroke-width:0;" cx="925.00" cy="75.00" r="7.00"/>
  <path fill="none" style="stroke: black; stroke-width:2;"
        d="M 931.00,75.00 931.00,43.75 z"/>
  <circle fill="black" style="stroke-width:0;" cx="975.00" cy="68.75" r="7.00"/>
  <path fill="none" style="stroke: black; stroke-width:2;"
        d="M 981.00,68.75 981.00,37.50 z"/>
  <circle fill="black" style="stroke-width:0;" cx="1025.00" cy="56.25" r="7.00"/>
  <path fill="none" style="stroke: black; stroke-width:2;"
        d="M 1031.00,56.25 1031.00,25.00 z"/>
  <circle fill="black" style="stroke-width:0;" cx="1075.00" cy="50.00" r="7.00"/>
  <path fill="none" style="stroke: black; stroke-width:2;"
        d="M 1081.00,50.00 1081.00,18.75 z"/>
  <circle fill="black" style="stroke-width:0;" cx="1125.00" cy="31.25" r="7.00"/>
  <path fill="none" style="stroke: black; stroke-width:2;"
        d="M 1131.00,31.25 1131.00,0.00 z"/>
  <path fill="none" style="stroke: black; stroke-width:1;"
        d="M 1111.00,37.50 1139.00,37.50 z"/>
</svg>
