<svg xmlns="http://www.w3.org/2000/svg" height="150.00px" viewBox="0 0 1250.00 150.00" width="1250.00px" fill="#000000">
  <path fill="white" d="M 0,0 0,150.00 1250.00,150.00 1250.00,0 0,0 z"/>
  <path fill="none" style="stroke: black; stroke-width:1;"
        d="M 100.00,50.00 1150.00,50.00 z"/>
  <path fill="none" style="stroke: black; stroke-width:1;"
        d="M 100.00,62.50 1150.00,62.50 z"/>
  <path fill="none" style="stroke: black; stroke-width:1;"
        d="M 100.00,75.00 1150.00,75.00 z"/>
  <path fill="none" style="stroke: black; stroke-width:1;"
        d="M 100.00,87.50 1150.00,87.50 z"/>
  <path fill="none" style="stroke: black; stroke-width:1;"
        d="M 100.00,100.00 1150.00,100.00 z"/>
  <path fill="none" style="stroke: black; stroke-width:3;"
        d="M 150.00,48.00 150.00,102.00 z"/>
  <path fill="none" style="stroke: black; stroke-width:3;"
        d="M 350.00,48.00 350.00,102.00 z"/>
  <path fill="none" style="stroke: black; stroke-width:3;"
        d="M 550.00,48.00 550.00,102.00 z"/>
  <path fill="none" style="stroke: black; stroke-width:3;"
        d="M 750.00,48.00 750.00,102.00 z"/>
  <path fill="none" style="stroke: black; stroke-width:3;"
        d="M 950.00,48.00 950.00,102.00 z"/>
  <path fill="none" style="stroke: black; stroke-width:3;"
        d="M 1150.00,48.00 1150.00,102.00 z"/>
  <circle fill="black" style="stroke-width:0;" cx="175.00" cy="112.50" r="7.00"/>
  <path fill="none" style="stroke: black; stroke-width:2;"
        d="M 181.00,112.50 181.00,81.25 z"/>
  <path fill="none" style="stroke: black; stroke-width:1;"
        d="M 161.00,112.50 189.00,112.50 z"/>
  <circle fill="black" style="stroke-width:0;" cx="225.00" cy="106.25" r="7.00"/>
  <path fill="none" style="stroke: black; stroke-width:2;"
        d="M 231.00,106.25 231.00,75.00 z"/>
  <circle fill="black" style="stroke-width:0;" cx="275.00" cy="100.00" r="7.00"/>
  <path fill="none" style="stroke: black; stroke-width:2;"
        d="M 281.00,100.00 281.00,68.75 z"/>
  <circle fill="black" style="stroke-width:0;" cx="325.00" cy="106.25" r="7.00"/>
  <path fill="none" style="stroke: black; stroke-width:2;"
        d="M 331.00,106.25 331.00,75.00 z"/>
  <circle fill="black" style="stroke-width:0;" cx="375.00" cy="93.75" r="7.00"/>
  <path fill="none" style="stroke: black; stroke-width:2;"
        d="M 381.00,93.75 381.00,62.50 z"/>
  <circle fill="black" style="stroke-width:0;" cx="425.00" cy="93.75" r="7.00"/>
  <path fill="none" style="stroke: black; stroke-width:2;"
        d="M 431.00,93.75 431.00,62.50 z"/>
  <circle fill="black" style="stroke-width:0;" cx="475.00" cy="100.00" r="7.00"/>
  <path fill="none" style="stroke: black; stroke-width:2;"
        d="M 481.00,100.00 481.00,68.75 z"/>
  <circle fill="black" style="stroke-width:0;" cx="525.00" cy="93.75" r="7.00"/>
  <path fill="none" style="stroke: black; stroke-width:2;"
        d="M 531.00,93.75 531.00,62.50 z"/>
  <circle fill="black" style="stroke-width:0;" cx="575.00" cy="100.00" r="7.00"/>
  <path fill="none" style="stroke: black; stroke-width:2;"
        d="M 581.00,100.00 581.00,68.75 z"/>
  <circle fill="black" style="stroke-width:0;" cx="625.00" cy="112.50" r="7.00"/>
  <path fill="none" style="stroke: black; stroke-width:2;"
        d="M 631.00,112.50 631.00,81.25 z"/>
  <path fill="none" style="stroke: black; stroke-width:1;"
        d="M 611.00,112.50 639.00,112.50 z"/>
  <circle fill="black" style="stroke-width:0;" cx="675.00" cy="125.00" r="7.00"/>
  <path fill="none" style="stroke: black; stroke-width:2;"
        d="M 681.00,125.00 681.00,93.75 z"/>
  <path fill="none" style="stroke: black; stroke-width:1;"
        d="M 661.00,112.50 689.00,112.50 z"/>
  <path fill="none" style="stroke: black; stroke-width:1;"
        d="M 661.00,125.00 689.00,125.00 z"/>
  <circle fill="black" style="stroke-width:0;" cx="725.00" cy="118.75" r="7.00"/>
  <path fill="none" style="stroke: black; stroke-width:2;"
        d="M 731.00,118.75 731.00,87.50 z"/>
  <path fill="none" style="stroke: black; stroke-width:1;"
        d="M 711.00,112.50 739.00,112.50 z"/>
  <circle fill="black" style="stroke-width:0;" cx="775.00" cy="125.00" r="7.00"/>
  <path fill="none" style="stroke: black; stroke-width:2;"
        d="M 781.00,125.00 781.00,93.75 z"/>
  <path fill="none" style="stroke: black; stroke-width:1;"
        d="M 761.00,112.50 789.00,112.50 z"/>
  <path fill="none" style="stroke: black; stroke-width:1;"
        d="M 761.00,125.00 789.00,125.00 z"/>
  <circle fill="black" style="stroke-width:0;" cx="825.00" cy="131.25" r="7.00"/>
  <path fill="none" style="stroke: black; stroke-width:2;"
        d="M 831.00,131.25 831.00,100.00 z"/>
  <path fill="none" style="stroke: black; stroke-width:1;"
        d="M 811.00,112.50 839.00,112.50 z"/>
  <path fill="none" style="stroke: black; stroke-width:1;"
        d="M 811.00,125.00 839.00,125.00 z"/>
  <circle fill="black" style="stroke-width:0;" cx="875.00" cy="131.25" r="7.00"/>
  <path fill="none" style="stroke: black; stroke-width:2;"
        d="M 881.00,131.25 881.00,100.00 z"/>
  <path fill="none" style="stroke: black; stroke-width:1;"
        d="M 861.00,112.50 889.00,112.50 z"/>
  <path fill="none" style="stroke: black; stroke-width:1;"
        d="M 861.00,125.00 889.00,125.00 z"/>
  <circle fill="black" style="stroke-width:0;" cx="925.00" cy="143.75" r="7.00"/>
  <path fill="none" style="stroke: black; stroke-width:2;"
        d="M 931.00,143.75 931.00,112.50 z"/>
  <path fill="none" style="stroke: black; stroke-width:1;"
        d="M 911.00,112.50 939.00,112.50 z"/>
  <path fill="none" style="stroke: black; stroke-width:1;"
        d="M 911.00,125.00 939.00,125.00 z"/>
  <path fill="none" style="stroke: black; stroke-width:1;"
        d="M 911.00,137.50 939.00,137.50 z"/>
  <circle fill="black" style="stroke-width:0;" cx="975.00" cy="137.50" r="7.00"/>
  <path fill="none" style="stroke: black; stroke-width:2;"
        d="M 981.00,137.50 981.00,106.25 z"/>
  <path fill="none" style="stroke: black; stroke-width:1;"
        d="M 961.00,112.50 989.00,112.50 z"/>
  <path fill="none" style="stroke: black; stroke-width:1;"
        d="M 961.00,125.00 989.00,125.00 z"/>
  <path fill="none" style="stroke: black; stroke-width:1;"
        d="M 961.00,137.50 989.00,137.50 z"/>
  <circle fill="black" style="stroke-width:0;" cx="1025.00" cy="125.00" r="7.00"/>
  <path fill="none" style="stroke: black; stroke-width:2;"
        d="M 1031.00,125.00 1031.00,93.75 z"/>
  <path fill="none" style="stroke: black; stroke-width:1;"
        d="M 1011.00,112.50 1039.00,112.50 z"/>
  <path fill="none" style="stroke: black; stroke-width:1;"
        d="M 1011.00,125.00 1039.00,125.00 z"/>
  <circle fill="black" style="stroke-width:0;" cx="1075.00" cy="118.75" r="7.00"/>
  <path fill="none" style="stroke: black; stroke-width:2;"
        d="M 1081.00,118.75 1081.00,87.50 z"/>
  <path fill="none" style="stroke: black; stroke-width:1;"
        d="M 1061.00,112.50 1089.00,112.50 z"/>
  <circle fill="black" style="stroke-width:0;" cx="1125.00" cy="112.50" r="7.00"/>
  <path fill="none" style="stroke: black; stroke-width:2;"
        d="M 1131.00,112.50 1131.00,81.25 z"/>
  <path fill="none" style="stroke: black; stroke-width:1;"
        d="M 1111.00,112.50 1139.00,112.50 z"/>
</svg>
