<svg xmlns="http://www.w3.org/2000/svg" height="150.00px" viewBox="0 0 1250.00 150.00" width="1250.00px" fill="#000000">
  <path fill="white" d="M 0,0 0,150.00 1250.00,150.00 1250.00,0 0,0 z"/>
  <path fill="none" style="stroke: black; stroke-width:1;"
        d="M 100.00,50.00 1150.00,50.00 z"/>
  <path fill="none" style="stroke: black; stroke-width:1;"
        d="M 100.00,62.50 1150.00,62.50 z"/>
  <path fill="none" style="stroke: black; stroke-width:1;"
        d="M 100.00,75.00 1150.00,75.00 z"/>
  <path fill="none" style="stroke: black; stroke-width:1;"
        d="M 100.00,87.50 1150.00,87.50 z"/>
  <path fill="none" style="stroke: black; stroke-width:1;"
        d="M 100.00,100.00 1150.00,100.00 z"/>
  <path fill="none" style="stroke: black; stroke-width:3;"
        d="M 150.00,48.00 150.00,102.00 z"/>
  <path fill="none" style="stroke: black; stroke-width:3;"
        d="M 350.00,48.00 350.00,102.00 z"/>
  <path fill="none" style="stroke: black; stroke-width:3;"
        d="M 550.00,48.00 550.00,102.00 z"/>
  <path fill="none" style="stroke: black; stroke-width:3;"
        d="M 750.00,48.00 750.00,102.00 z"/>
  <path fill="none" style="stroke: black; stroke-width:3;"
        d="M 950.00,48.00 950.00,102.00 z"/>
  <path fill="none" style="stroke: black; stroke-width:3;"
        d="M 1150.00,48.00 1150.00,102.00 z"/>
  <path fill="none" style="stroke: black; stroke-width:2;"
        d="M 108.38,48.01 124.62,45.17 z"/>
  <path fill="none" style="stroke: black; stroke-width:2;"
        d="M 108.38,54.83 124.62,51.99 z"/>
  <path fill="none" style="stroke: black; stroke-width:2;"
        d="M 113.09,41.88 113.09,58.12 z"/>
  <path fill="none" style="stroke: black; stroke-width:2;"
        d="M 119.91,41.88 119.91,58.12 z"/>
  <circle fill="black" style="stroke-width:0;" cx="175.00" cy="106.25" r="7.00"/>
  <path fill="none" style="stroke: black; stroke-width:2;"
        d="M 181.00,106.25 181.00,75.00 z"/>
  <circle fill="black" style="stroke-width:0;" cx="175.00" cy="87.50" r="7.00"/>
  <path fill="none" style="stroke: black; stroke-width:2;"
        d="M 181.00,87.50 181.00,56.25 z"/>
  <circle fill="black" style="stroke-width:0;" cx="225.00" cy="75.00" r="7.00"/>
  <path fill="none" style="stroke: black; stroke-width:2;"
        d="M 231.00,75.00 231.00,43.75 z"/>
  <circle fill="black" style="stroke-width:0;" cx="275.00" cy="87.50" r="7.00"/>
  <path fill="none" style="stroke: black; stroke-width:2;"
        d="M 281.00,87.50 281.00,56.25 z"/>
  <circle fill="black" style="stroke-width:0;" cx="275.00" cy="62.50" r="7.00"/>
  <path fill="none" style="stroke: black; stroke-width:2;"
        d="M 281.00,62.50 281.00,31.25 z"/>
  <circle fill="black" style="stroke-width:0;" cx="325.00" cy="87.50" r="7.00"/>
  <path fill="none" style="stroke: black; stroke-width:2;"
        d="M 331.00,87.50 331.00,56.25 z"/>
  <circle fill="black" style="stroke-width:0;" cx="375.00" cy="93.75" r="7.00"/>
  <path fill="none" style="stroke: black; stroke-width:2;"
        d="M 381.00,93.75 381.00,62.50 z"/>
  <circle fill="black" style="stroke-width:0;" cx="425.00" cy="112.50" r="7.00"/>
  <path fill="none" style="stroke: black; stroke-width:2;"
        d="M 431.00,112.50 431.00,81.25 z"/>
  <path fill="none" style="stroke: black; stroke-width:1;"
        d="M 411.00,112.50 439.00,112.50 z"/>
  <circle fill="black" style="stroke-width:0;" cx="475.00" cy="93.75" r="7.00"/>
  <path fill="none" style="stroke: black; stroke-width:2;"
        d="M 481.00,93.75 481.00,62.50 z"/>
  <circle fill="black" style="stroke-width:0;" cx="525.00" cy="87.50" r="7.00"/>
  <path fill="none" style="stroke: black; stroke-width:2;"
        d="M 531.00,87.50 531.00,56.25 z"/>
  <circle fill="black" style="stroke-width:0;" cx="575.00" cy="56.25" r="7.00"/>
  <path fill="none" style="stroke: black; stroke-width:2;"
        d="M 581.00,56.25 581.00,25.00 z"/>
  <circle fill="black" style="stroke-width:0;" cx="625.00" cy="62.50" r="7.00"/>
  <path fill="none" style="stroke: black; stroke-width:2;"
        d="M 631.00,62.50 631.00,31.25 z"/>
  <circle fill="black" style="stroke-width:0;" cx="625.00" cy="112.50" r="7.00"/>
  <path fill="none" style="stroke: black; stroke-width:2;"
        d="M 631.00,112.50 631.00,81.25 z"/>
  <path fill="none" style="stroke: black; stroke-width:1;"
        d="M 611.00,112.50 639.00,112.50 z"/>
  <circle fill="black" style="stroke-width:0;" cx="675.00" cy="81.25" r="7.00"/>
  <path fill="none" style="stroke: black; stroke-width:2;"
        d="M 681.00,81.25 681.00,50.00 z"/>
  <circle fill="black" style="stroke-width:0;" cx="725.00" cy="87.50" r="7.00"/>
  <path fill="none" style="stroke: black; stroke-width:2;"
        d="M 731.00,87.50 731.00,56.25 z"/>
  <circle fill="black" style="stroke-width:0;" cx="725.00" cy="106.25" r="7.00"/>
  <path fill="none" style="stroke: black; stroke-width:2;"
        d="M 731.00,106.25 731.00,75.00 z"/>
  <circle fill="black" style="stroke-width:0;" cx="775.00" cy="81.25" r="7.00"/>
  <path fill="none" style="stroke: black; stroke-width:2;"
        d="M 781.00,81.25 781.00,50.00 z"/>
  <circle fill="black" style="stroke-width:0;" cx="775.00" cy="56.25" r="7.00"/>
  <path fill="none" style="stroke: black; stroke-width:2;"
        d="M 781.00,56.25 781.00,25.00 z"/>
  <circle fill="black" style="stroke-width:0;" cx="825.00" cy="68.75" r="7.00"/>
  <path fill="none" style="stroke: black; stroke-width:2;"
        d="M 831.00,68.75 831.00,37.50 z"/>
  <circle fill="black" style="stroke-width:0;" cx="875.00" cy="93.75" r="7.00"/>
  <path fill="none" style="stroke: black; stroke-width:2;"
        d="M 881.00,93.75 881.00,62.50 z"/>
  <circle fill="black" style="stroke-width:0;" cx="875.00" cy="112.50" r="7.00"/>
  <path fill="none" style="stroke: black; stroke-width:2;"
        d="M 881.00,112.50 881.00,81.25 z"/>
  <path fill="none" style="stroke: black; stroke-width:1;"
        d="M 861.00,112.50 889.00,112.50 z"/>
  <circle fill="black" style="stroke-width:0;" cx="925.00" cy="93.75" r="7.00"/>
  <path fill="none" style="stroke: black; stroke-width:2;"
        d="M 931.00,93.75 931.00,62.50 z"/>
  <circle fill="black" style="stroke-width:0;" cx="925.00" cy="68.75" r="7.00"/>
  <path fill="none" style="stroke: black; stroke-width:2;"
        d="M 931.00,68.75 931.00,37.50 z"/>
  <circle fill="black" style="stroke-width:0;" cx="975.00" cy="112.50" r="7.00"/>
  <path fill="none" style="stroke: black; stroke-width:2;"
        d="M 981.00,112.50 981.00,81.25 z"/>
  <path fill="none" style="stroke: black; stroke-width:1;"
        d="M 961.00,112.50 989.00,112.50 z"/>
  <circle fill="black" style="stroke-width:0;" cx="1025.00" cy="106.25" r="7.00"/>
  <path fill="none" style="stroke: black; stroke-width:2;"
        d="M 1031.00,106.25 1031.00,75.00 z"/>
  <circle fill="black" style="stroke-width:0;" cx="1075.00" cy="87.50" r="7.00"/>
  <path fill="none" style="stroke: black; stroke-width:2;"
        d="M 1081.00,87.50 1081.00,56.25 z"/>
  <circle fill="black" style="stroke-width:0;" cx="1125.00" cy="87.50" r="7.00"/>
  <path fill="none" style="stroke: black; stroke-width:2;"
        d="M 1131.00,87.50 1131.00,56.25 z"/>
</svg>
